{
  "help":"https://data.gov.sg/api/3/action/help_show?name=datastore_search",
  "success":true,
  "result":{
    "resource_id":"a807b7ab-6cad-4aa6-87d0-e283a7353a0f",
    "fields":[
      {
        "type":"int4",
        "id":"_id"
      },
      {
        "type":"text",
        "id":"quarter"
      },
      {
        "type":"numeric",
        "id":"volume_of_mobile_data"
      }
    ],
    "records":[
      {
        "volume_of_mobile_data":"0.000384",
        "quarter":"2004-Q3",
        "_id":1
      },
      {
        "volume_of_mobile_data":"0.000543",
        "quarter":"2004-Q4",
        "_id":2
      },
      {
        "volume_of_mobile_data":"0.00062",
        "quarter":"2005-Q1",
        "_id":3
      },
      {
        "volume_of_mobile_data":"0.000634",
        "quarter":"2005-Q2",
        "_id":4
      },
      {
        "volume_of_mobile_data":"0.000718",
        "quarter":"2005-Q3",
        "_id":5
      },
      {
        "volume_of_mobile_data":"0.000089",
        "quarter":"2006-Q1",
        "_id":6
      },
      {
        "volume_of_mobile_data":"0.100934",
        "quarter":"2007-Q4",
        "_id":7
      },
      {
        "volume_of_mobile_data":"0.683579",
        "quarter":"2008-Q4",
        "_id":8
      },
      {
        "volume_of_mobile_data":"2.109516",
        "quarter":"2009-Q4",
        "_id":9
      },
      {
        "volume_of_mobile_data":"3.336984",
        "quarter":"2010-Q3",
        "_id":10
      },
      {
        "volume_of_mobile_data":"4.07796",
        "quarter":"2011-Q4",
        "_id":11
      },
      {
        "volume_of_mobile_data":"5.903005",
        "quarter":"2012-Q4",
        "_id":12
      },
      {
        "volume_of_mobile_data":"7.664802",
        "quarter":"2013-Q4",
        "_id":13
      },
      {
        "volume_of_mobile_data":"9.327967",
        "quarter":"2014-Q4",
        "_id":14
      }
    ],
    "_links":{
      "start":"/api/action/datastore_search?limit=5&resource_id=a807b7ab-6cad-4aa6-87d0-e283a7353a0f",
      "next":"/api/action/datastore_search?offset=5&limit=5&resource_id=a807b7ab-6cad-4aa6-87d0-e283a7353a0f"
    },
    "limit":14,
    "total":59
  }
}